distro,install_method,package_manager_additional_args,program,option,url,folder,patch,font_family,config_file_location,config_file_install_location,permissions,owner,group
Alpine Linux,apk,,blkid,,,,,,,,,,
Alpine Linux,apk,,build-base,,,,,,,,,,
Alpine Linux,apk,,cfdisk,,,,,,,,,,
Alpine Linux,apk,,chrony,,,,,,,,,,
Alpine Linux,apk,,clang,,,,,,,,,,
Alpine Linux,apk,,curl,,,,,,,,,,
Alpine Linux,apk,,dbus,,,,,,,,,,
Alpine Linux,apk,,entr,,,,,,,,,,
Alpine Linux,apk,,file,,,,,,,,,,
Alpine Linux,apk,,firefox,,,,,,,,,,
Alpine Linux,apk,,fontconfig,,,,,,,,,,
Alpine Linux,apk,,freetype,,,,,,,,,,
Alpine Linux,apk,,fuse-exfat,,,,,,,,,,
Alpine Linux,apk,,fzf,,,,,,,,,,
Alpine Linux,apk,,git,,,,,,,,,,
Alpine Linux,apk,,gnupg,,,,,,,,,,
Alpine Linux,apk,,go,,,,,,,,,,
Alpine Linux,apk,,jq,,,,,,,,,,
Alpine Linux,apk,,libx11,,,,,,,,,,
Alpine Linux,apk,,libx11-dev,,,,,,,,,,
Alpine Linux,apk,,libxft,,,,,,,,,,
Alpine Linux,apk,,libxft-dev,,,,,,,,,,
Alpine Linux,apk,,libxinerama-dev,,,,,,,,,,
Alpine Linux,apk,,libxrandr-dev,,,,,,,,,,
Alpine Linux,apk,,linux-firmware,,,,,,,,,,
Alpine Linux,apk,,linux-headers,,,,,,,,,,
Alpine Linux,apk,,lsblk,,,,,,,,,,
Alpine Linux,apk,,make,,,,,,,,,,
Alpine Linux,apk,,mesa,,,,,,,,,,
Alpine Linux,apk,,mpv,,,,,,,,,,
Alpine Linux,apk,,mupdf,,,,,,,,,,
Alpine Linux,apk,,musl,,,,,,,,,,
Alpine Linux,apk,,ncurses,,,,,,,,,,
Alpine Linux,apk,,neovim,,,,,,,,,,
Alpine Linux,apk,,networkmanager,,,,,,,,,,
Alpine Linux,apk,,nnn,,,,,,,,,,
Alpine Linux,apk,,openrc,,,,,,,,,,
Alpine Linux,apk,,openssh,,,,,,,,,,
Alpine Linux,apk,,openssl,,,,,,,,,,
Alpine Linux,apk,,p11-kit,,,,,,,,,,
Alpine Linux,apk,,patch,,,,,,,,,,
Alpine Linux,apk,,perl,,,,,,,,,,
Alpine Linux,apk,,pkgconf,,,,,,,,,,
Alpine Linux,apk,,polkit,,,,,,,,,,
Alpine Linux,apk,,pulseaudio,,,,,,,,,,
Alpine Linux,apk,,pulsemixer,,,,,,,,,,
Alpine Linux,apk,,python3,,,,,,,,,,
Alpine Linux,apk,,rsync,,,,,,,,,,
Alpine Linux,apk,,scrot,,,,,,,,,,
Alpine Linux,apk,,shadow,,,,,,,,,,
Alpine Linux,apk,,sudo,,,,,,,,,,
Alpine Linux,apk,,sxiv,,,,,,,,,,
Alpine Linux,apk,,tar,,,,,,,,,,
Alpine Linux,apk,,tmux,,,,,,,,,,
Alpine Linux,apk,,ttf-font-awesome,,,,,,,,,,
Alpine Linux,apk,,unzip,,,,,,,,,,
Alpine Linux,apk,,vidstab,,,,,,,,,,
Alpine Linux,apk,,x264-libs,,,,,,,,,,
Alpine Linux,apk,,x265-libs,,,,,,,,,,
Alpine Linux,apk,,xauth,,,,,,,,,,
Alpine Linux,apk,,xcb-proto,,,,,,,,,,
Alpine Linux,apk,,xcb-util,,,,,,,,,,
Alpine Linux,apk,,xcb-util-dev,,,,,,,,,,
Alpine Linux,apk,,xinit,,,,,,,,,,
Alpine Linux,apk,,xkbcomp,,,,,,,,,,
Alpine Linux,apk,,xkeyboard-config,,,,,,,,,,
Alpine Linux,apk,,xmodmap,,,,,,,,,,
Alpine Linux,apk,,xorg-server,,,,,,,,,,
Alpine Linux,apk,,xorgproto,,,,,,,,,,
Alpine Linux,apk,,xrandr,,,,,,,,,,
Alpine Linux,apk,,xz,,,,,,,,,,
Alpine Linux,apk,,zlib,,,,,,,,,,
Alpine Linux,apk,,zsh,,,,,,,,,,
Alpine Linux,apk,,zsh-vcs,,,,,,,,,,
Alpine Linux,group,,audio,,,,,,,,,,
Alpine Linux,group,,input,,,,,,,,,,
Alpine Linux,group,,netdev,,,,,,,,,,
Alpine Linux,group,,plugdev,,,,,,,,,,
Alpine Linux,group,,users,,,,,,,,,,
Alpine Linux,group,,video,,,,,,,,,,
Alpine Linux,group,,wheel,,,,,,,,,,
Alpine Linux,service,,chronyd,,,,,,,,,,
Alpine Linux,service,,dbus,,,,,,,,,,
Alpine Linux,service,,networkmanager,,,,,,,,,,
Debian GNU/Linux,apt,,arduino,mc-programming,,,,,,,,,
Debian GNU/Linux,apt,,bind9-utils,,,,,,,,,,
Debian GNU/Linux,apt,,calc,,,,,,,,,,
Debian GNU/Linux,apt,,chrony,,,,,,,,,,
Debian GNU/Linux,apt,,clang,,,,,,,,,,
Debian GNU/Linux,apt,,cmake,mc-programming,,,,,,,,,
Debian GNU/Linux,apt,,curl,,,,,,,,,,
Debian GNU/Linux,apt,,dbus,,,,,,,,,,
Debian GNU/Linux,apt,,entr,,,,,,,,,,
Debian GNU/Linux,apt,,exfat-fuse,,,,,,,,,,
Debian GNU/Linux,apt,,firefox,,,,,,,,,,
Debian GNU/Linux,apt,,fontconfig,,,,,,,,,,
Debian GNU/Linux,apt,,fonts-font-awesome,,,,,,,,,,
Debian GNU/Linux,apt,,fzf,,,,,,,,,,
Debian GNU/Linux,apt,,gcc-arm-none-eabi,mc-programming,,,,,,,,,
Debian GNU/Linux,apt,,git,,,,,,,,,,
Debian GNU/Linux,apt,,gnupg2,,,,,,,,,,
Debian GNU/Linux,apt,,golang,,,,,,,,,,
Debian GNU/Linux,apt,,jq,,,,,,,,,,
Debian GNU/Linux,apt,,keepassxc,,,,,,,,,,
Debian GNU/Linux,apt,,libc6-dev,,,,,,,,,,
Debian GNU/Linux,apt,,libncurses-dev,,,,,,,,,,
Debian GNU/Linux,apt,,libnfs-utils,,,,,,,,,,
Debian GNU/Linux,apt,,libsdl2-dev,,,,,,,,,,
Debian GNU/Linux,apt,,libsdl2-net-dev,,,,,,,,,,
Debian GNU/Linux,apt,,libx11-dev,,,,,,,,,,
Debian GNU/Linux,apt,,libxft-dev ,,,,,,,,,,
Debian GNU/Linux,apt,,libxinerama-dev,,,,,,,,,,
Debian GNU/Linux,apt,,libxrandr-dev,,,,,,,,,,
Debian GNU/Linux,apt,,llvm,,,,,,,,,,
Debian GNU/Linux,apt,,maim,,,,,,,,,,
Debian GNU/Linux,apt,,make,,,,,,,,,,
Debian GNU/Linux,apt,,mesa-utils,,,,,,,,,,
Debian GNU/Linux,apt,,mpv,,,,,,,,,,
Debian GNU/Linux,apt,,mupdf,,,,,,,,,,
Debian GNU/Linux,apt,,neovim,,,,,,,,,,
Debian GNU/Linux,apt,,net-tools,,,,,,,,,,
Debian GNU/Linux,apt,,network-manager,,,,,,,,,,
Debian GNU/Linux,apt,,ninja-build,mc-programming,,,,,,,,,
Debian GNU/Linux,apt,,nnn,,,,,,,,,,
Debian GNU/Linux,apt,,parted,,,,,,,,,,
Debian GNU/Linux,apt,,pkg-config,,,,,,,,,,
Debian GNU/Linux,apt,,polkitd,,,,,,,,,,
Debian GNU/Linux,apt,,pulseaudio,,,,,,,,,,
Debian GNU/Linux,apt,,pulsemixer,,,,,,,,,,
Debian GNU/Linux,apt,,rsync,,,,,,,,,,
Debian GNU/Linux,apt,,scrot,,,,,,,,,,
Debian GNU/Linux,apt,,sudo,,,,,,,,,,
Debian GNU/Linux,apt,,sxiv,,,,,,,,,,
Debian GNU/Linux,apt,,tar,,,,,,,,,,
Debian GNU/Linux,apt,,telnet,,,,,,,,,,
Debian GNU/Linux,apt,,tmux,,,,,,,,,,
Debian GNU/Linux,apt,,tree,,,,,,,,,,
Debian GNU/Linux,apt,,unzip,,,,,,,,,,
Debian GNU/Linux,apt,,virt-manager,kvm,,,,,,,,,
Debian GNU/Linux,apt,,wget,,,,,,,,,,
Debian GNU/Linux,apt,,x11-utils,,,,,,,,,,
Debian GNU/Linux,apt,,x11-xkb-utils,,,,,,,,,,
Debian GNU/Linux,apt,,x11-xserver-utils,,,,,,,,,,
Debian GNU/Linux,apt,,x264,,,,,,,,,,
Debian GNU/Linux,apt,,x265,,,,,,,,,,
Debian GNU/Linux,apt,,xautolock,,,,,,,,,,
Debian GNU/Linux,apt,,xclip,,,,,,,,,,
Debian GNU/Linux,apt,,xinit,,,,,,,,,,
Debian GNU/Linux,apt,,xserver-xorg-input-kbd,,,,,,,,,,
Debian GNU/Linux,apt,,xserver-xorg-input-libinput,,,,,,,,,,
Debian GNU/Linux,apt,,xserver-xorg-input-mouse,,,,,,,,,,
Debian GNU/Linux,apt,,xwallpaper,,,,,,,,,,
Debian GNU/Linux,apt,,xz-utils,,,,,,,,,,
Debian GNU/Linux,apt,,zsh,,,,,,,,,,
Debian GNU/Linux,apt,--no-install-recommends,libvirt-daemon-system,kvm,,,,,,,,,
Debian GNU/Linux,apt,--no-install-recommends,qemu-system,kvm,,,,,,,,,
Debian GNU/Linux,group,,dialout,mc-programming,,,,,,,,,
Debian GNU/Linux,group,,libvirt,kvm,,,,,,,,,
Debian GNU/Linux,group,,sudo,,,,,,,,,,
Debian GNU/Linux,service,,NetworkManager,,,,,,,,,,
Debian GNU/Linux,service,,chronyd,kvm,,,,,,,,,
Debian GNU/Linux,service,,dbus,,,,,,,,,,
Debian GNU/Linux,service,,libvirtd,kvm,,,,,,,,,
Debian GNU/Linux,service,,libvirtd,kvm,,,,,,,,,
Debian GNU/Linux,service,,virtlockd,kvm,,,,,,,,,
Debian GNU/Linux,service,,virtlogd,kvm,,,,,,,,,
Void,xbps,,NetworkManager,,,,,,,,,,
Void,xbps,,alsa-lib-devel,,,,,,,,,,
Void,xbps,,alsa-utils,,,,,,,,,,
Void,xbps,,arduino,mc-programming,,,,,,,,,
Void,xbps,,base-system,,,,,,,,,,
Void,xbps,,bash,,,,,,,,,,
Void,xbps,,bind-utils,,,,,,,,,,
Void,xbps,,calc,,,,,,,,,,
Void,xbps,,chrony,,,,,,,,,,
Void,xbps,,clang,,,,,,,,,,
Void,xbps,,clipmenu,,,,,,,,,,
Void,xbps,,cmake,mc-programming,,,,,,,,,
Void,xbps,,cross-arm-none-eabi,mc-programming,,,,,,,,,
Void,xbps,,curl,,,,,,,,,,
Void,xbps,,dbus,,,,,,,,,,
Void,xbps,,dejavu-fonts-ttf,,,,,,,,,,
Void,xbps,,entr,,,,,,,,,,
Void,xbps,,exfat-utils,,,,,,,,,,
Void,xbps,,expat,,,,,,,,,,
Void,xbps,,expat-devel,,,,,,,,,,
Void,xbps,,firefox,,,,,,,,,,
Void,xbps,,font-awesome,,,,,,,,,,
Void,xbps,,fontconfig,,,,,,,,,,
Void,xbps,,fontconfig-devel,,,,,,,,,,
Void,xbps,,freetype,,,,,,,,,,
Void,xbps,,freetype-devel,,,,,,,,,,
Void,xbps,,fuse-exfat,,,,,,,,,,
Void,xbps,,fzf,,,,,,,,,,
Void,xbps,,git,,,,,,,,,,
Void,xbps,,gnupg2,,,,,,,,,,
Void,xbps,,gnutls,,,,,,,,,,
Void,xbps,,go,,,,,,,,,,
Void,xbps,,jq,,,,,,,,,,
Void,xbps,,keepassxc,,,,,,,,,,
Void,xbps,,libX11,,,,,,,,,,
Void,xbps,,libX11-devel,,,,,,,,,,
Void,xbps,,libXScrnSaver,,,,,,,,,,
Void,xbps,,libXcomposite,,,,,,,,,,
Void,xbps,,libXcursor,,,,,,,,,,
Void,xbps,,libXdamage,,,,,,,,,,
Void,xbps,,libXdmcp,,,,,,,,,,
Void,xbps,,libXdmcp-devel,,,,,,,,,,
Void,xbps,,libXext,,,,,,,,,,
Void,xbps,,libXext-devel,,,,,,,,,,
Void,xbps,,libXfixes,,,,,,,,,,
Void,xbps,,libXfont2,,,,,,,,,,
Void,xbps,,libXft,,,,,,,,,,
Void,xbps,,libXft-devel,,,,,,,,,,
Void,xbps,,libXi,,,,,,,,,,
Void,xbps,,libXinerama,,,,,,,,,,
Void,xbps,,libXinerama-devel,,,,,,,,,,
Void,xbps,,libXrandr,,,,,,,,,,
Void,xbps,,libXrandr-devel,,,,,,,,,,
Void,xbps,,libXt,,,,,,,,,,
Void,xbps,,libvirt,kvm,,,,,,,,,
Void,xbps,,libxcb,,,,,,,,,,
Void,xbps,,libxcb-devel,,,,,,,,,,
Void,xbps,,libllvm12,,,,,,,,,,
Void,xbps,,maim,,,,,,,,,,
Void,xbps,,make,,,,,,,,,,
Void,xbps,,man-pages-devel,,,,,,,,,,
Void,xbps,,man-pages-posix,,,,,,,,,,
Void,xbps,,mesa,,,,,,,,,,
Void,xbps,,mesa-dri,,,,,,,,,,
Void,xbps,,mpv,,,,,,,,,,
Void,xbps,,mupdf,,,,,,,,,,
Void,xbps,,musikcube,,,,,,,,,,
Void,xbps,,ncurses-devel,,,,,,,,,,
Void,xbps,,neovim,,,,,,,,,,
Void,xbps,,nfs-utils,,,,,,,,,,
Void,xbps,,ninja,mc-programming,,,,,,,,,
Void,xbps,,nnn,,,,,,,,,,
Void,xbps,,parted,,,,,,,,,,
Void,xbps,,pkg-config,,,,,,,,,,
Void,xbps,,polkit,,,,,,,,,,
Void,xbps,,pulseaudio,,,,,,,,,,
Void,xbps,,pulsemixer,,,,,,,,,,
Void,xbps,,qemu,kvm,,,,,,,,,
Void,xbps,,rsync,,,,,,,,,,
Void,xbps,,scrot,,,,,,,,,,
Void,xbps,,setxkbmap,,,,,,,,,,
Void,xbps,,simple-mtpfs,,,,,,,,,,
Void,xbps,,sxiv,,,,,,,,,,
Void,xbps,,terminus-font,,,,,,,,,,
Void,xbps,,tmux,,,,,,,,,,
Void,xbps,,tree,,,,,,,,,,
Void,xbps,,unzip,,,,,,,,,,
Void,xbps,,virt-manager,kvm,,,,,,,,,
Void,xbps,,wget,,,,,,,,,,
Void,xbps,,x264,,,,,,,,,,
Void,xbps,,x265,,,,,,,,,,
Void,xbps,,xautolock,,,,,,,,,,
Void,xbps,,xclip,,,,,,,,,,
Void,xbps,,xdotool,,,,,,,,,,
Void,xbps,,xdotool-devel,,,,,,,,,,
Void,xbps,,xev,,,,,,,,,,
Void,xbps,,xf86-input-libinput,,,,,,,,,,
Void,xbps,,xinit,,,,,,,,,,
Void,xbps,,xkbcomp,,,,,,,,,,
Void,xbps,,xkeyboard-config,,,,,,,,,,
Void,xbps,,xkill,,,,,,,,,,
Void,xbps,,xmodmap,,,,,,,,,,
Void,xbps,,xorg-fonts,,,,,,,,,,
Void,xbps,,xorg-minimal,,,,,,,,,,
Void,xbps,,xorg-server,,,,,,,,,,
Void,xbps,,xrandr,,,,,,,,,,
Void,xbps,,xwallpaper,,,,,,,,,,
Void,xbps,,xz,,,,,,,,,,
Void,xbps,,zsh,,,,,,,,,,
Void,group,,dialout,mc-programming,,,,,,,,,
Void,group,,libvirt,kvm,,,,,,,,,
Void,group,,network,,,,,,,,,,
Void,service,,NetworkManager,,,,,,,,,,
Void,service,,chronyd,,,,,,,,,,
Void,service,,dbus,,,,,,,,,,
Void,service,,libvirtd,kvm,,,,,,,,,
Void,service,,virtlockd,kvm,,,,,,,,,
Void,service,,virtlogd,kvm,,,,,,,,,
Any,Make,,dmenu,,https://gitlab.com/ronaldr1985/dmenu.git,repos,,,,,,,
Any,Make,,dwm,,https://gitlab.com/ronaldr1985/dwm.git,repos,,,,,,,
Any,Make,,dwmstatus,,https://gitlab.com/ronaldr1985/dwmstatus.git,repos,,,,,,,
Any,Make,,keep-alive,,https://gitlab.com/ronaldr1985/keep-alive.git,repos,,,,,,,
Any,Make,,slock,,https://gitlab.com/ronaldr1985/slock.git,repos,,,,,,,
Any,Make,,herbe,,https://github.com/dudik/herbe.git,src/not-mine,herbe.patch,,,,,,
Any,Make,,odin,,https://github.com/ronaldr1985/odin.git,src/not-mine,,,,,,,
Any,dot-files,,dot-files,,https://gitlab.com/ronaldr1985/dot-files.git,repos,,,,,,,
Any,font-link,,Iosevka Term,,https://github.com/be5invis/Iosevka/releases/download/v22.0.2/ttf-iosevka-term-22.0.2.zip,repos,,iosevka,,,,,
Any,font-link,,JetBrainsMono Nerd Font,,https://github.com/be5invis/Iosevka/releases/download/v22.0.2/ttf-iosevka-term-22.0.2.zip,repos,,JetBrainsMono,,,,,
Any,config-file,,chrony,,,,,,config-files/chrony.conf,/etc/chrony.conf,0644,root,root
